<?xml version="1.0" encoding="utf-8"?>
<!-- Generator: Adobe Illustrator 16.0.0, SVG Export Plug-In . SVG Version: 6.00 Build 0)  -->
<!DOCTYPE svg PUBLIC "-//W3C//DTD SVG 1.1//EN" "http://www.w3.org/Graphics/SVG/1.1/DTD/svg11.dtd">
<svg version="1.1" id="Layer_1" xmlns="http://www.w3.org/2000/svg" xmlns:xlink="http://www.w3.org/1999/xlink" x="0px" y="0px"
	 width="78px" height="78px" viewBox="0 0 78 78" enable-background="new 0 0 78 78" xml:space="preserve">
<path fill="#FFFFFF" d="M51.154,33.64v-2.923c0-7.234-5.92-13.154-13.154-13.154s-13.154,5.919-13.154,13.154v2.923
	c0,7.234,5.919,13.155,13.154,13.155S51.154,40.874,51.154,33.64z M38,1C17.012,1,0,18.013,0,39c0,11.011,4.677,20.93,12.16,27.856
	c6.75,6.271,15.204,9.638,23.726,10.087l-5.7-5.487l5.835-13.142l-6.235-4.98l-17.072,5.505C8.409,53.372,5.846,46.482,5.846,39
	C5.846,21.267,20.267,6.846,38,6.846S70.154,21.267,70.154,39c0,7.474-2.562,14.362-6.86,19.828l-17.08-5.494l-6.246,4.979
	l5.837,13.142l-5.7,5.489c8.76-0.463,17.142-3.963,23.735-10.087C71.323,59.93,76,50.011,76,39C76,18.013,58.987,1,38,1z"/>
<path fill="#494949" d="M51.154,32.67v-2.923c0-7.234-5.92-13.154-13.154-13.154s-13.154,5.919-13.154,13.154v2.923
	c0,7.234,5.919,13.154,13.154,13.154S51.154,39.904,51.154,32.67z M38,0.03c-20.988,0-38,17.013-38,38
	c0,11.01,4.677,20.929,12.16,27.857c6.75,6.27,15.204,9.638,23.726,10.086l-5.7-5.487l5.835-13.142l-6.235-4.979l-17.072,5.504
	C8.409,52.401,5.846,45.513,5.846,38.03C5.846,20.297,20.267,5.876,38,5.876S70.154,20.297,70.154,38.03
	c0,7.474-2.562,14.362-6.86,19.829l-17.08-5.495l-6.246,4.979l5.837,13.143l-5.7,5.488c8.76-0.463,17.142-3.963,23.735-10.087
	C71.323,58.96,76,49.04,76,38.03C76,17.042,58.987,0.03,38,0.03z"/>
</svg>
