<?xml version="1.0" encoding="utf-8"?>
<!-- Generator: Adobe Illustrator 16.0.0, SVG Export Plug-In . SVG Version: 6.00 Build 0)  -->
<!DOCTYPE svg PUBLIC "-//W3C//DTD SVG 1.1//EN" "http://www.w3.org/Graphics/SVG/1.1/DTD/svg11.dtd">
<svg version="1.1" id="Layer_1" xmlns="http://www.w3.org/2000/svg" xmlns:xlink="http://www.w3.org/1999/xlink" x="0px" y="0px"
	 width="128px" height="128px" viewBox="0 0 128 128" enable-background="new 0 0 128 128" xml:space="preserve">
<circle fill="#78B3D4" cx="64" cy="63.999" r="42"/>
<g>
	<g>
		<path fill="#666766" d="M93.922,87.606l-4.474-12.221c1.392-3.295,2.161-6.918,2.161-10.722
			c0.002-15.223-12.337-27.563-27.564-27.563c-15.222,0-27.566,12.341-27.566,27.565c0,15.224,12.341,27.567,27.566,27.567
			c6.532,0,12.524-2.283,17.248-6.077l10.077,3.942C93.594,90.976,94.746,89.852,93.922,87.606z M50.332,68.196
			c-1.95,0-3.531-1.583-3.531-3.532c0-1.946,1.582-3.529,3.531-3.529c1.949,0,3.53,1.583,3.53,3.529
			C53.862,66.613,52.281,68.196,50.332,68.196z M63.367,68.196c-1.948,0-3.53-1.583-3.53-3.532c0-1.946,1.582-3.529,3.53-3.529
			c1.949,0,3.53,1.583,3.53,3.529C66.897,66.613,65.316,68.196,63.367,68.196z M76.403,68.196c-1.945,0-3.529-1.583-3.529-3.532
			c0-1.946,1.584-3.529,3.529-3.529c1.948,0,3.533,1.583,3.533,3.529C79.937,66.613,78.352,68.196,76.403,68.196z"/>
	</g>
	<g>
		<path fill="#FFFFFF" d="M93.922,86.271l-4.474-12.22c1.392-3.293,2.161-6.918,2.161-10.721
			c0.002-15.223-12.337-27.564-27.564-27.564c-15.222,0-27.566,12.341-27.566,27.568c0,15.223,12.341,27.565,27.566,27.565
			c6.532,0,12.524-2.284,17.248-6.076l10.077,3.942C93.594,89.641,94.746,88.52,93.922,86.271z M50.332,66.864
			c-1.95,0-3.531-1.585-3.531-3.533c0-1.947,1.582-3.531,3.531-3.531c1.949,0,3.53,1.583,3.53,3.531
			C53.862,65.279,52.281,66.864,50.332,66.864z M63.367,66.864c-1.948,0-3.53-1.585-3.53-3.533c0-1.947,1.582-3.531,3.53-3.531
			c1.949,0,3.53,1.583,3.53,3.531C66.897,65.279,65.316,66.864,63.367,66.864z M76.403,66.864c-1.945,0-3.529-1.585-3.529-3.533
			c0-1.947,1.584-3.531,3.529-3.531c1.948,0,3.533,1.583,3.533,3.531C79.937,65.279,78.352,66.864,76.403,66.864z"/>
	</g>
</g>
<g>
	<circle fill="none" stroke="#79B3D4" stroke-width="3.6" stroke-miterlimit="10" cx="64.001" cy="64.5" r="54"/>
	<circle fill="#CE7AB2" stroke="#FFFFFF" stroke-width="4" stroke-miterlimit="10" cx="118" cy="64.5" r="7"/>
	<circle fill="#D2CC77" stroke="#FFFFFF" stroke-width="4" stroke-miterlimit="10" cx="64" cy="10.5" r="7"/>
	<circle fill="#81C679" stroke="#FFFFFF" stroke-width="4" stroke-miterlimit="10" cx="10" cy="64.5" r="7"/>
</g>
<g display="none">
	<path display="inline" fill="none" stroke="#79B3D4" stroke-width="4.4159" stroke-miterlimit="10" d="M8,63.836
		C8,33.341,28.092,8.664,52.922,8.664"/>
	<path display="inline" fill="none" stroke="#79B3D4" stroke-width="4.4425" stroke-miterlimit="10" d="M8,63.666
		c0,30.863,20.092,55.838,44.922,55.838"/>
	<path display="inline" fill="none" stroke="#79B3D4" stroke-width="4.469" stroke-miterlimit="10" d="M119.922,65.17
		C119.922,33.937,99.83,8.664,75,8.664"/>
	<path display="inline" fill="none" stroke="#79B3D4" stroke-width="4.4159" stroke-miterlimit="10" d="M119.922,64.332
		c0,30.495-20.092,55.172-44.922,55.172"/>
</g>
</svg>
